{
    "$schema-version": "0.0.1",
    "description": "",
    "image": {
        "repository": "richardjortega/customvisionmodule",
        "tag": {
            "version": "0.0.13",
            "platforms": {
                "amd64": "./Dockerfile.amd64",
                "arm32v7": "./Dockerfile.arm32v7",
                "arm32v7-base": "./Dockerfile.arm32v7-base"
            }
        }
    },
    "language": "python"
}